{
  "project_info": {
    "project_number": "507962838124",
    "firebase_url": "https://starwars-777a5.firebaseio.com",
    "project_id": "starwars-777a5",
    "storage_bucket": "starwars-777a5.appspot.com"
  },
  "client": [
    {
      "client_info": {
        "mobilesdk_app_id": "1:507962838124:android:24cb102f566118c5",
        "android_client_info": {
          "package_name": "net.uturuncostudio.starwars"
        }
      },
      "oauth_client": [
        {
          "client_id": "507962838124-f681fe4a4917eo3sl3scufgscd48ghf7.apps.googleusercontent.com",
          "client_type": 3
        }
      ],
      "api_key": [
        {
          "current_key": "AIzaSyAxpVaL1SMZ6n_tZvNO8pFPs0JzzPkPxIk"
        }
      ],
      "services": {
        "analytics_service": {
          "status": 1
        },
        "appinvite_service": {
          "status": 1,
          "other_platform_oauth_client": []
        },
        "ads_service": {
          "status": 2
        }
      }
    }
  ],
  "configuration_version": "1"
}